\contentsline {section}{\numberline {I}Original Radiolynx}{2}{}%
\contentsline {subsection}{\numberline {\mbox {I-A}}Programming}{2}{}%
\contentsline {section}{\numberline {II}LETUTx}{5}{}%
\contentsline {subsection}{\numberline {\mbox {II-A}}Programming}{5}{}%
