\relax 
\providecommand \oddpage@label [2]{}
\@writefile{toc}{\contentsline {section}{\numberline {I}Original Radiolynx}{2}{}\protected@file@percent }
\@writefile{lof}{\contentsline {figure}{\numberline {1}{\ignorespaces Radiolynx Original programming. $C_f$ = 280 MHz\relax }}{2}{}\protected@file@percent }
\providecommand*\caption@xref[2]{\@setref\relax\@undefined{#1}}
\newlabel{fig:Spectrum}{{1}{2}}
\@writefile{toc}{\contentsline {subsection}{\numberline {\mbox  {I-A}}Programming}{2}{}\protected@file@percent }
\@writefile{lof}{\contentsline {figure}{\numberline {2}{\ignorespaces ADF4360-7 Power-Up\relax }}{2}{}\protected@file@percent }
\newlabel{fig:ADF4360-7 Power Up}{{2}{2}}
\@writefile{lof}{\contentsline {figure}{\numberline {3}{\ignorespaces ADF4360-7 Frequency Equation\relax }}{3}{}\protected@file@percent }
\newlabel{fig:-7Frequency}{{3}{3}}
\@writefile{lof}{\contentsline {figure}{\numberline {4}{\ignorespaces Original Radiolynx SPI\relax }}{3}{}\protected@file@percent }
\newlabel{fig:Original Radiolynx}{{4}{3}}
\@writefile{lof}{\contentsline {figure}{\numberline {5}{\ignorespaces Original Radiolynx sequence 1\relax }}{4}{}\protected@file@percent }
\newlabel{fig:Original Radiolynx sequence 1}{{5}{4}}
\@writefile{lof}{\contentsline {figure}{\numberline {6}{\ignorespaces Original Radiolynx sequence 2\relax }}{4}{}\protected@file@percent }
\newlabel{fig:Original Radiolynx sequence 2}{{6}{4}}
\@writefile{lof}{\contentsline {figure}{\numberline {7}{\ignorespaces Original Radiolynx sequence 3\relax }}{5}{}\protected@file@percent }
\newlabel{fig:Original Radiolynx sequence 3}{{7}{5}}
\@writefile{toc}{\contentsline {section}{\numberline {II}LETUTx}{5}{}\protected@file@percent }
\@writefile{lof}{\contentsline {figure}{\numberline {8}{\ignorespaces Frequency Equation for ADF4360-9\relax }}{5}{}\protected@file@percent }
\newlabel{fig:Frequency-9}{{8}{5}}
\@writefile{toc}{\contentsline {subsection}{\numberline {\mbox  {II-A}}Programming}{5}{}\protected@file@percent }
\@writefile{lof}{\contentsline {figure}{\numberline {9}{\ignorespaces LETUTx Revised Order.\relax }}{6}{}\protected@file@percent }
\newlabel{fig:LETUTx Revised Order}{{9}{6}}
\@writefile{lof}{\contentsline {figure}{\numberline {10}{\ignorespaces LETUTx Revised Order Sequence 1\relax }}{6}{}\protected@file@percent }
\newlabel{fig:LETUTx Revised Order 1}{{10}{6}}
\@writefile{lof}{\contentsline {figure}{\numberline {11}{\ignorespaces LETUTx Revised Order Sequence 2\relax }}{7}{}\protected@file@percent }
\newlabel{fig:LETUTx Revised Order 2}{{11}{7}}
\@writefile{lof}{\contentsline {figure}{\numberline {12}{\ignorespaces LETUTx Revised Order Sequence 3\relax }}{7}{}\protected@file@percent }
\newlabel{fig:LETUTx Revised Order 3}{{12}{7}}
\bibdata{cites}
\bibstyle{IEEEtran}
\@writefile{lof}{\contentsline {figure}{\numberline {13}{\ignorespaces LETUTx Revised Order Output. Measured at 62.5 Mhz\relax }}{8}{}\protected@file@percent }
\newlabel{fig:LETUTx Revised Order Output}{{13}{8}}
\gdef \@abspage@last{9}
